%YAML 1.1
%TAG !u! tag:unity3d.com,2011:
--- !u!114 &4358972251546572818
MonoBehaviour:
  m_ObjectHideFlags: 0
  m_CorrespondingSourceObject: {fileID: 0}
  m_PrefabInstance: {fileID: 0}
  m_PrefabAsset: {fileID: 0}
  m_GameObject: {fileID: 2716080516966707573}
  m_Enabled: 1
  m_EditorHideFlags: 0
  m_Script: {fileID: 11500000, guid: b7857b5e5cd0fc14f81e2c9dc613e230, type: 3}
  m_Name: 
  m_EditorClassIdentifier: 
  discountAmount: {fileID: 2716080516408803027}
--- !u!1001 &4820254114122735152
PrefabInstance:
  m_ObjectHideFlags: 0
  serializedVersion: 2
  m_Modification:
    m_TransformParent: {fileID: 0}
    m_Modifications:
    - target: {fileID: 7446015085648965445, guid: 25ebb53aeb5e6a04fae7c51446b805a1,
        type: 3}
      propertyPath: m_Name
      value: CartDiscount
      objectReference: {fileID: 0}
    - target: {fileID: 7446015085648965444, guid: 25ebb53aeb5e6a04fae7c51446b805a1,
        type: 3}
      propertyPath: m_LocalPosition.x
      value: 0
      objectReference: {fileID: 0}
    - target: {fileID: 7446015085648965444, guid: 25ebb53aeb5e6a04fae7c51446b805a1,
        type: 3}
      propertyPath: m_LocalPosition.y
      value: 0
      objectReference: {fileID: 0}
    - target: {fileID: 7446015085648965444, guid: 25ebb53aeb5e6a04fae7c51446b805a1,
        type: 3}
      propertyPath: m_LocalPosition.z
      value: 0
      objectReference: {fileID: 0}
    - target: {fileID: 7446015085648965444, guid: 25ebb53aeb5e6a04fae7c51446b805a1,
        type: 3}
      propertyPath: m_LocalRotation.x
      value: 0
      objectReference: {fileID: 0}
    - target: {fileID: 7446015085648965444, guid: 25ebb53aeb5e6a04fae7c51446b805a1,
        type: 3}
      propertyPath: m_LocalRotation.y
      value: 0
      objectReference: {fileID: 0}
    - target: {fileID: 7446015085648965444, guid: 25ebb53aeb5e6a04fae7c51446b805a1,
        type: 3}
      propertyPath: m_LocalRotation.z
      value: 0
      objectReference: {fileID: 0}
    - target: {fileID: 7446015085648965444, guid: 25ebb53aeb5e6a04fae7c51446b805a1,
        type: 3}
      propertyPath: m_LocalRotation.w
      value: 1
      objectReference: {fileID: 0}
    - target: {fileID: 7446015085648965444, guid: 25ebb53aeb5e6a04fae7c51446b805a1,
        type: 3}
      propertyPath: m_RootOrder
      value: 0
      objectReference: {fileID: 0}
    - target: {fileID: 7446015085648965444, guid: 25ebb53aeb5e6a04fae7c51446b805a1,
        type: 3}
      propertyPath: m_LocalEulerAnglesHint.x
      value: 0
      objectReference: {fileID: 0}
    - target: {fileID: 7446015085648965444, guid: 25ebb53aeb5e6a04fae7c51446b805a1,
        type: 3}
      propertyPath: m_LocalEulerAnglesHint.y
      value: 0
      objectReference: {fileID: 0}
    - target: {fileID: 7446015085648965444, guid: 25ebb53aeb5e6a04fae7c51446b805a1,
        type: 3}
      propertyPath: m_LocalEulerAnglesHint.z
      value: 0
      objectReference: {fileID: 0}
    - target: {fileID: 7446015085648965444, guid: 25ebb53aeb5e6a04fae7c51446b805a1,
        type: 3}
      propertyPath: m_AnchoredPosition.x
      value: 870
      objectReference: {fileID: 0}
    - target: {fileID: 7446015085648965444, guid: 25ebb53aeb5e6a04fae7c51446b805a1,
        type: 3}
      propertyPath: m_AnchoredPosition.y
      value: -45
      objectReference: {fileID: 0}
    - target: {fileID: 7446015085648965444, guid: 25ebb53aeb5e6a04fae7c51446b805a1,
        type: 3}
      propertyPath: m_SizeDelta.x
      value: 1730
      objectReference: {fileID: 0}
    - target: {fileID: 7446015085648965444, guid: 25ebb53aeb5e6a04fae7c51446b805a1,
        type: 3}
      propertyPath: m_SizeDelta.y
      value: 80
      objectReference: {fileID: 0}
    - target: {fileID: 7446015085648965444, guid: 25ebb53aeb5e6a04fae7c51446b805a1,
        type: 3}
      propertyPath: m_AnchorMin.x
      value: 0
      objectReference: {fileID: 0}
    - target: {fileID: 7446015085648965444, guid: 25ebb53aeb5e6a04fae7c51446b805a1,
        type: 3}
      propertyPath: m_AnchorMin.y
      value: 1
      objectReference: {fileID: 0}
    - target: {fileID: 7446015085648965444, guid: 25ebb53aeb5e6a04fae7c51446b805a1,
        type: 3}
      propertyPath: m_AnchorMax.x
      value: 0
      objectReference: {fileID: 0}
    - target: {fileID: 7446015085648965444, guid: 25ebb53aeb5e6a04fae7c51446b805a1,
        type: 3}
      propertyPath: m_AnchorMax.y
      value: 1
      objectReference: {fileID: 0}
    - target: {fileID: 7446015085648965444, guid: 25ebb53aeb5e6a04fae7c51446b805a1,
        type: 3}
      propertyPath: m_Pivot.x
      value: 0.5
      objectReference: {fileID: 0}
    - target: {fileID: 7446015085648965444, guid: 25ebb53aeb5e6a04fae7c51446b805a1,
        type: 3}
      propertyPath: m_Pivot.y
      value: 0.5
      objectReference: {fileID: 0}
    - target: {fileID: 7446015086951241566, guid: 25ebb53aeb5e6a04fae7c51446b805a1,
        type: 3}
      propertyPath: m_Sprite
      value: 
      objectReference: {fileID: 21300000, guid: fdfe9d4526b453c4389d6d4a48bed8b1,
        type: 3}
    - target: {fileID: 7446015085508255755, guid: 25ebb53aeb5e6a04fae7c51446b805a1,
        type: 3}
      propertyPath: m_Text
      value: Discount
      objectReference: {fileID: 0}
    - target: {fileID: 7446015085508255755, guid: 25ebb53aeb5e6a04fae7c51446b805a1,
        type: 3}
      propertyPath: m_FontData.m_Font
      value: 
      objectReference: {fileID: 12800000, guid: f70b0d194d863d14eaa3261671349a4b,
        type: 3}
    - target: {fileID: 7446015086222729443, guid: 25ebb53aeb5e6a04fae7c51446b805a1,
        type: 3}
      propertyPath: m_FontData.m_Font
      value: 
      objectReference: {fileID: 12800000, guid: f70b0d194d863d14eaa3261671349a4b,
        type: 3}
    - target: {fileID: 3008274545602787896, guid: 25ebb53aeb5e6a04fae7c51446b805a1,
        type: 3}
      propertyPath: m_FontData.m_Font
      value: 
      objectReference: {fileID: 12800000, guid: f70b0d194d863d14eaa3261671349a4b,
        type: 3}
    - target: {fileID: 7446015085973821867, guid: 25ebb53aeb5e6a04fae7c51446b805a1,
        type: 3}
      propertyPath: m_SizeDelta.x
      value: 0
      objectReference: {fileID: 0}
    - target: {fileID: 6250809402997590088, guid: 25ebb53aeb5e6a04fae7c51446b805a1,
        type: 3}
      propertyPath: m_IsActive
      value: 0
      objectReference: {fileID: 0}
    - target: {fileID: 2898308039086027488, guid: 25ebb53aeb5e6a04fae7c51446b805a1,
        type: 3}
      propertyPath: m_SizeDelta.y
      value: 0
      objectReference: {fileID: 0}
    - target: {fileID: 7446015086222729440, guid: 25ebb53aeb5e6a04fae7c51446b805a1,
        type: 3}
      propertyPath: m_AnchorMin.y
      value: 0
      objectReference: {fileID: 0}
    - target: {fileID: 7446015086222729440, guid: 25ebb53aeb5e6a04fae7c51446b805a1,
        type: 3}
      propertyPath: m_AnchorMax.y
      value: 0
      objectReference: {fileID: 0}
    - target: {fileID: 7446015086222729440, guid: 25ebb53aeb5e6a04fae7c51446b805a1,
        type: 3}
      propertyPath: m_AnchoredPosition.y
      value: 0
      objectReference: {fileID: 0}
    - target: {fileID: 7446015086222729440, guid: 25ebb53aeb5e6a04fae7c51446b805a1,
        type: 3}
      propertyPath: m_SizeDelta.x
      value: 0
      objectReference: {fileID: 0}
    - target: {fileID: 7894570684556213243, guid: 25ebb53aeb5e6a04fae7c51446b805a1,
        type: 3}
      propertyPath: m_AnchorMin.y
      value: 0
      objectReference: {fileID: 0}
    - target: {fileID: 7894570684556213243, guid: 25ebb53aeb5e6a04fae7c51446b805a1,
        type: 3}
      propertyPath: m_AnchorMax.y
      value: 0
      objectReference: {fileID: 0}
    - target: {fileID: 7894570684556213243, guid: 25ebb53aeb5e6a04fae7c51446b805a1,
        type: 3}
      propertyPath: m_AnchoredPosition.x
      value: 55
      objectReference: {fileID: 0}
    - target: {fileID: 7894570684556213243, guid: 25ebb53aeb5e6a04fae7c51446b805a1,
        type: 3}
      propertyPath: m_AnchoredPosition.y
      value: 0
      objectReference: {fileID: 0}
    - target: {fileID: 7894570684556213243, guid: 25ebb53aeb5e6a04fae7c51446b805a1,
        type: 3}
      propertyPath: m_SizeDelta.x
      value: 0
      objectReference: {fileID: 0}
    m_RemovedComponents:
    - {fileID: 7277894066067304371, guid: 25ebb53aeb5e6a04fae7c51446b805a1, type: 3}
  m_SourcePrefab: {fileID: 100100000, guid: 25ebb53aeb5e6a04fae7c51446b805a1, type: 3}
--- !u!1 &2716080516966707573 stripped
GameObject:
  m_CorrespondingSourceObject: {fileID: 7446015085648965445, guid: 25ebb53aeb5e6a04fae7c51446b805a1,
    type: 3}
  m_PrefabInstance: {fileID: 4820254114122735152}
  m_PrefabAsset: {fileID: 0}
--- !u!114 &2716080516408803027 stripped
MonoBehaviour:
  m_CorrespondingSourceObject: {fileID: 7446015086222729443, guid: 25ebb53aeb5e6a04fae7c51446b805a1,
    type: 3}
  m_PrefabInstance: {fileID: 4820254114122735152}
  m_PrefabAsset: {fileID: 0}
  m_GameObject: {fileID: 0}
  m_Enabled: 1
  m_EditorHideFlags: 0
  m_Script: {fileID: 708705254, guid: f70555f144d8491a825f0804e09c671c, type: 3}
  m_Name: 
  m_EditorClassIdentifier: 
